{ "modules": [
  { "name": "amps",
    "branches": ["4.2-stable", "5.0-stable", "5.1-stable", "6.0-stable", "master"]
  },
  { "name": "ao",
    "branches": ["v0.25.x", "v0.26.x", "v0.27.x", "v0.28.x", "v0.29.x", "v1.0.x", "master"]
  },
  { "name": "ao-plugin",
    "branches": ["activeobjects-plugin-0.25.x", "activeobjects-plugin-0.26.x", "activeobjects-plugin-0.27.x", "activeobjects-plugin-0.28.x", "activeobjects-plugin-0.29.x", "activeobjects-plugin-1.0.x", "master"]
  },
  { "name": "atlassian-annotations",
    "branches": ["master"]
  },
  { "name": "atlassian-core",
    "branches": ["atlassian-core-4.5.x", "atlassian-core-4.6.x", "atlassian-core-5.0.x", "master"]
  },
  { "name": "atlassian-event",
    "branches": ["atlassian-event-2.0.x", "atlassian-event-2.1.x", "atlassian-event-2.2.x", "atlassian-event-2.3.x", "atlassian-event-3.0.x", "master"]
  },
  { "name": "atlassian-gadgets",
    "branches": ["atlassian-gadgets-3.0.x", "atlassian-gadgets-3.1.x", "atlassian-gadgets-3.2.x", "atlassian-gadgets-3.3.x", "atlassian-gadgets-3.5.x", "atlassian-gadgets-3.7.x", "master"]
  },
  { "name": "atlassian-healthcheck",
    "branches": ["master"]
  },
  { "name": "atlassian-oauth",
    "branches": ["atlassian-oauth-1.2.x", "atlassian-oauth-1.3.x", "atlassian-oauth-1.4.x", "atlassian-oauth-1.5.x", "atlassian-oauth-1.6.x", "atlassian-oauth-1.7.x", "atlassian-oauth-1.8.x", "atlassian-oauth-1.9.x", "atlassian-oauth-2.0.x", "master"]
  },
  { "name": "atlassian-plugin-sdk",
    "branches": ["5.0-stable", "5.1-stable", "6.0-stable"]
  },
  { "name": "atlassian-plugins",
    "branches": ["atlassian-plugins-3.0.x", "atlassian-plugins-3.2.x", "atlassian-plugins-3.3.x", "atlassian-plugins-4.0.x", "master"]
  },
  { "name": "atlassian-pretty-urls",
    "branches": ["atlassian-pretty-urls-1.11.x", "atlassian-pretty-urls-2.0.x", "master"]
  },
  { "name": "atlassian-refapp",
    "branches": ["refapp-2.20.x", "refapp-2.21.x", "refapp-2.22.x", "refapp-2.23.x", "refapp-3.0.x", "master"]
  },
  { "name": "atlassian-rest",
    "branches": ["rest-2.4.x", "rest-2.5.x", "rest-2.6.x", "rest-2.7.x", "rest-2.8.x", "rest-2.9.x", "rest-3.0.x", "rest-3.1.x", "rest-4.0.x", "master"]
  },
  { "name": "atlassian-sal",
    "branches": ["sal-2.7.x", "sal-2.8.x", "sal-2.9.x", "sal-2.10.x", "sal-2.11.x", "sal-2.12.x", "sal-2.13.x", "sal-3.0.x", "master"]
  },
  { "name": "atlassian-spring-scanner",
    "branches": ["master"]
  },
  { "name": "atlassian-streams",
    "branches": ["activity-streams-5.0.x", "activity-streams-5.1.x", "activity-streams-5.2.x", "activity-stream-5.3.x", "activity-stream-5.4.x", "activity-stream-6.0.x", "master"]
  },
  { "name": "atlassian-template-renderer",
    "branches": ["atlassian-template-renderer-1.2.x", "atlassian-template-renderer-1.3.x", "atlassian-template-renderer-1.4.x", "atlassian-template-renderer-1.5.x", "atlassian-template-renderer-2.0.x", "master"]
  },
  { "name": "atlassian-trusted-apps",
    "branches": ["atlassian-trusted-apps-2.4.x", "atlassian-trusted-apps-2.5.x", "atlassian-trusted-apps-3.0.x", "atlassian-trusted-apps-3.1.x", "atlassian-trusted-apps-4.0.x", "atlassian-trusted-apps-4.1.x", "master"]
  },
  { "name": "functest-plugin",
    "branches": ["master"]
  },
  { "name": "atlassian-instrumentation",
    "branches": ["atlassian-instrumentation-2.0.x", "master"]
  },
  { "name": "atlassian-landlord-plugin",
    "branches": ["master"]
  }
]}
